{
"podcasts": [
{
"name": "Lessons Learned While Helping Enterprises Adopt Machine Learning",
"url": "https://w.soundcloud.com/player/?url=https%3A//api.soundcloud.com/tracks/526594677",
  "author": "Francesca Lazzeri",
  "date": "2018-11-17 14:00:00"
},
{
"name": "Linear Digressions - Building Data Science Teams",
"url": "https://w.soundcloud.com/player/?url=https%3A//api.soundcloud.com/tracks/528439233",
  "author": "Linear Digressions",
  "date": "2018-11-17 11:00:00"
},
  {
    "name": "What's the future of Data Science? Speaker Mashup Edition",
    "url": "https://w.soundcloud.com/player/?url=https%3A//api.soundcloud.com/tracks/513480891",
    "author": "Mashup Edition",
    "date": "2018-11-11 13:00:00"
  }

],
  "skills": [
    {
      "category": "Machine Learning Models",
      "skillSet": ["Neural networks", "Logistic Regression", "Support Vector Machines", "Decision Trees", "K-means"]
    },
    {
      "category": "Machine Learning Languages",
      "skillSet": ["Python", "Matlab (Octave)", "vectorization", "sklearn", "keras", "statsmodels", "scipy"]
    },

    {
      "category": "Data Engineering",
      "skillSet": ["Principal Component Analysis (Dimension Reduction)", "pandas", "numpy"]
    },
    {
      "category": "Statistics",
      "skillSet": ["Regression", "learning curves", "confusion matrix", "z-scores", "hypothesis test"]
    },
    {
      "category": "Big Data",
      "skillSet": ["Google Cloud Platform (Big Query)"]
    },
    {
      "category": "Data Storytelling",
      "skillSet": ["Tableau", "seaborn", "bokeh", "matplotlib.pyplot"]
    }

    ]
    }
