{
"skills": [
{
"category": "Machine Learning Models",
"skillSet": ["Neural networks", "Logistic Regression", "Support Vector Machines", "Decision Trees", "K-means"]
},
{
"category": "Machine Learning Languages",
"skillSet": ["Python", "Matlab (Octave)", "vectorization", "sklearn", "keras", "statsmodels", "scipy"]
},

{
"category": "Data Engineering",
"skillSet": ["Principal Component Analysis", "pandas", "numpy", "Angular", "Selenium"]
},
{
"category": "Statistics",
"skillSet": ["Regression", "learning curves", "confusion matrix", "z-scores", "hypothesis test"]
},
{
"category": "Big Data",
"skillSet": ["Google Cloud Platform (Big Query)"]
},
{
"category": "Data Storytelling",
"skillSet": ["Tableau", "seaborn", "bokeh", "matplotlib.pyplot"]
}

]
}
